260508 318322 407
80388 856549 525
177587 237920 443
78364 617815 470
359562 69465 443
271624 10067 443
814840 588512 509
846519 768887 525
605238 716178 509
929960 127105 525
940562 921896 507
343257 522224 470
154334 324865 443
676529 545002 509
86492 547061 470
621320 310689 470
666049 466856 509
977261 134567 525
877088 176566 525
346108 274397 441
351549 987406 525
534741 350191 470
217263 445639 449
128424 347039 443
79835 555723 470
809000 48602 509
344399 824493 509
530010 178530 470
267543 693141 509
583909 26960 470
236663 387490 441
110160 141588 349
477004 383436 449
116764 837570 509
439390 207193 449
517051 681283 509
277278 602126 470
854936 376034 525
915631 655285 525
731830 353832 509
816655 200988 509
98969 301636 443
731821 118432 509
468682 597245 470
820383 474193 509
771379 910940 525
864715 131419 525
297042 865048 525
793740 924648 525
197554 938386 525
657334 832125 504
340896 61694 443
656969 377167 509
370188 345376 441
704628 513985 509
448567 359513 449
12862 704744 509
526386 518652 439
265979 830137 509
410701 928421 525
545812 670843 509
283922 186979 443
402522 554143 470
170134 537453 470
666221 354523 509
453251 447193 387
848826 424822 525
457101 210522 449
432523 554769 470
404544 545234 470
729790 383265 509
929596 541491 525
387078 229089 443
839463 725639 525
656168 776871 504
165683 677336 509
625499 799056 509
409376 266937 441
607145 869176 525
484547 226176 449
156611 546790 470
254171 830199 509
949219 171723 525
795661 890785 525
723216 624819 509
643826 876943 525
867417 600717 525
399212 423302 449
569272 347313 470
705007 561615 509
661297 282844 509
367752 963116 525
455290 814455 509
397398 660087 509
944681 700584 525
928456 405615 525
678359 650910 442
744096 981402 525
14979 632405 509
182358 948607 525
987763 744178 525
562664 720121 509
478789 227721 449
869401 658436 525
507339 71682 449
512907 162835 470
155866 380381 443
325865 909894 525
875960 761494 525
5089 313141 443
756374 386391 509
163874 990996 525
167953 938922 525
652292 446335 509
626699 900975 525
477287 233467 449
255002 208200 443
849498 126815 525
96799 957563 525
470893 722410 509
680864 615670 509
38058 843375 525
164173 942922 525
138198 258948 443
129696 411226 449
338056 974602 525
35248 715509 509
117401 243650 443
78051 768369 509
592928 773101 509
904102 936741 476
869949 156807 525
170646 328738 443
187730 333836 443
111940 728917 509
290525 84951 443
664998 792029 504
932457 569331 525
396920 104998 443
819229 166487 509
330086 717541 509
491326 604260 470
914580 673025 525
51043 787655 509
338995 118842 443
279506 117156 443
725930 739516 424
72015 39256 340
181665 958012 525
896838 555836 525
975616 634640 525
152841 390016 443
539813 565486 452
752889 195752 509
329843 265741 407
313063 723528 509
347249 468442 449
750029 167064 509
303798 238980 407
228171 149421 386
678872 702123 442
908567 224088 525
800322 555428 509
711900 18923 509
845897 654357 525
254655 454483 449
29931 142780 375
649834 109269 509
474266 339422 449
121483 612009 470
995273 952986 458
776255 134975 509
871621 554679 525
376619 429672 449
666688 338714 509
718692 923515 525
925115 567019 525
212781 131902 383
680200 493251 509
697827 669700 442
218246 330162 443
50650 121019 354
945243 55048 525
615740 420197 470
921565 583196 525
224112 276335 443
989761 650538 525
201714 119306 383
1450 114293 354
736241 984911 525
550778 245353 470
544926 678545 509
603824 107690 470
457054 482769 444
979597 284830 525
931059 805178 525
429488 96129 449
415167 328003 449
954473 966488 414
741395 770135 468
729316 740692 424
326505 781756 509
712539 882305 525
500932 56705 449
204629 79617 383
410125 11731 449
331738 992125 525
809046 511463 509
659041 319702 509
245970 555183 470
33124 844710 525
634582 35866 509
617661 646774 509
253295 825945 509
234335 847751 525
838988 153531 525
79732 811083 509
922405 809979 525
491949 762150 509
278994 395606 441
116356 510010 449
799360 645789 504
404336 286800 441
880076 696552 525
473295 557206 470
973689 484892 525
480080 43348 449
611303 436685 470
915770 805936 525
399273 246374 441
88439 262059 443
303490 549496 470
860522 196811 525
453978 754098 509
993200 183632 525
779716 830592 468
161035 76812 383
507235 819574 509
208332 843567 525
865288 772016 525
420638 298923 449
768982 396802 509
770171 921100 525
883506 650302 525
640449 417844 509
262320 819848 509
206430 525896 470
124000 833662 509
528982 15518 470
557158 206266 470
601915 111881 470
858657 218512 525
546526 801304 509
786527 737849 468
209112 441973 449
175852 648223 509
688953 968045 525
969465 764932 525
211362 934617 525
330304 983130 525
138279 290796 443
677649 580581 509
63165 91800 351
793453 222046 509
504957 334491 449
885362 363128 525
53876 637147 509
596778 408705 470
446062 820405 509
890625 500678 525
152687 648855 509
954904 913847 507
77404 967880 525
647342 773058 504
89271 856154 525
262819 226804 443
487413 727735 509
718490 117023 509
956613 200316 525
982305 210717 525
33759 814400 509
545640 619845 452
613430 13703 470
857550 869052 388
250929 561540 470
534267 935171 525
208160 705663 509
643205 215667 509
694689 447615 509
545931 124147 470
857087 609313 525
373101 130006 443
210736 409594 443
32257 93369 351
393961 98905 443
916690 21908 525
266917 562378 470
819247 512505 509
687492 150832 509
240750 932899 525
