341168 819396 509
487255 642354 509
85206 989918 525
274288 677711 509
961379 806733 525
324465 930889 525
606810 300874 470
652950 771067 504
399302 583188 470
241610 713028 509
58641 480993 449
275722 114918 443
626642 605124 509
884631 473183 525
428685 122607 449
512285 10581 470
283255 465258 449
947453 240047 525
46164 764185 509
847863 722443 525
43359 261858 443
354206 205530 443
763890 40536 509
355587 313880 441
345600 289971 384
998932 308652 525
44285 152847 375
241580 472930 449
446814 749181 509
165324 520075 470
514546 510268 470
502462 495454 426
937694 745262 525
649496 812458 504
788760 397262 509
774457 601050 509
139381 455939 449
198690 149143 383
750263 177520 509
933489 788057 525
206070 754066 509
77177 269127 443
431727 963534 525
889966 434391 525
833616 532046 509
735934 741157 424
830612 826056 419
916002 812579 525
928910 982104 507
229643 544374 470
825032 914635 525
473098 511983 470
662817 261204 509
602944 920567 525
370808 663766 509
611167 41983 470
390776 233404 441
312202 946230 525
673371 783489 504
164268 880227 525
223894 410375 449
364539 771407 509
657183 87019 509
433403 908741 525
473782 773365 509
264181 738829 509
22454 892190 525
434609 989750 525
534820 18858 470
394308 531138 470
440753 972844 525
596685 705228 509
52264 32145 324
145930 672416 509
867688 233896 525
281424 414074 449
353991 479968 449
132415 282999 443
126820 475049 449
831051 814830 450
351150 48446 443
540923 941415 525
86409 792906 509
328105 232777 407
334876 731668 509
489167 909328 525
611538 103931 470
115985 863706 525
626234 328956 470
891433 772786 525
544832 317424 470
557188 989289 525
414602 122398 449
855943 485493 525
499260 258581 449
751871 859097 525
819830 244812 509
994399 376414 525
625795 194226 470
911353 85905 525
383976 312383 441
899190 173714 525
973797 288029 525
903590 292090 525
271137 431799 449
977312 359654 525
554562 252271 470
568430 968133 525
302618 674392 509
145543 370795 443
274466 639087 509
846818 258427 525
799585 122716 509
44979 685118 509
326770 171136 443
476619 676163 509
89642 156341 383
386296 452724 449
2775 986644 525
570414 999486 525
19345 267490 443
610469 756272 509
83044 340327 443
954143 559348 525
742229 954846 525
759697 776030 468
324214 692335 509
936902 949007 507
634536 708149 504
255899 285763 407
181753 193821 360
986691 521967 525
410333 385504 449
991320 975674 427
237796 221266 443
17280 345970 443
884544 30408 525
592173 21874 470
444474 998 449
14260 932410 525
261997 396742 441
225972 722649 509
525733 699785 509
288119 799294 509
734379 126107 509
619567 176825 470
297888 643122 509
509716 820727 509
234978 701472 509
361519 205229 443
588637 798141 509
247325 103654 443
864538 805602 525
636374 241637 509
73123 151926 375
974263 261817 525
775005 772208 393
784558 981349 525
162262 723353 509
527071 233954 470
328135 563363 470
373829 581738 470
994091 357220 525
953963 76272 525
168709 829222 509
558720 989644 525
648375 952946 525
762243 917310 525
496912 543616 470
206669 686413 509
543763 821008 509
357513 395131 436
107431 372602 443
340246 931194 525
250164 118307 443
150594 512395 470
846678 164939 525
594005 109317 470
854866 601843 525
170641 701204 509
610640 668199 509
450016 729612 509
345457 421140 449
242075 297045 407
500870 630875 509
990457 245711 525
707546 110773 509
406268 388175 436
562793 70699 470
366705 358234 410
226673 819923 509
482037 318715 449
742180 109299 509
933923 128353 525
378165 565735 470
914473 897148 476
211682 932189 525
38206 423661 449
394760 452534 449
179989 443330 449
611489 386006 470
333909 183924 443
124720 559666 470
302534 349073 441
616967 258018 470
479989 783060 509
383142 204474 443
622923 334384 470
963555 429195 525
168683 696450 509
485058 984954 525
819153 214509 509
59100 254034 443
853265 891832 445
209647 548374 470
163021 893766 525
109593 338929 443
485622 292588 449
27086 153616 375
624108 43061 470
30617 900433 525
548431 579346 421
358022 187693 443
535956 274510 470
477544 720772 509
675214 819670 504
387829 50031 443
758285 901854 525
382245 548671 470
644558 628573 416
346244 990019 525
868786 497745 525
505886 727899 509
851291 147309 525
422282 681731 509
531239 589118 452
405206 434848 449
584185 487040 470
300854 465312 449
588910 499123 470
791837 183227 509
250705 587873 470
697772 926569 525
944809 486738 525
432710 127069 449
743624 262077 509
760913 322527 509
878418 675288 525
