954245 345030
708644 955929
632199 300556
100014 801977
142160 827300
779772 312680
565163 574025
967853 527285
91938 986397
645354 364724
298179 466550
2904 754456
478681 791388
719600 231901
914193 541081
604019 419932
685708 405791
409588 90033
16829 557125
925234 471369
363803 714908
90149 938334
875677 171955
471283 802261
347112 30704
549024 577535
230405 111205
686383 751416
948657 914343
923839 426108
830619 259395
684622 131660
399812 882356
947893 786250
59576 192957
849535 713530
150665 541327
673823 352821
486393 635191
511851 294850
245080 315299
727629 259375
862686 266583
121473 109568
481449 182111
519603 430065
718528 138347
185568 645450
522889 349536
810913 610524
616389 703719
713704 727449
324051 349985
940615 123776
943815 154588
707429 2781
551364 604354
286552 122193
489379 81520
722152 89108
375435 318557
368192 316466
547871 878090
167268 138812
154642 546864
114463 922354
776420 219496
52302 602646
17509 851048
368619 848595
964732 607664
736352 292773
542719 125135
33723 614456
264159 75894
585067 745387
985672 954454
972823 790963
102318 725041
124213 130148
308481 275060
636011 912664
238958 92212
48269 889285
433593 854691
165265 144145
11590 580881
40775 575231
598411 959265
268110 308291
20625 831314
955112 170581
423168 689770
626092 554680
635493 503649
270763 348955
452508 845063
3981 54306
325682 204546
863491 839838
378077 237323
99610 688265
612103 589139
784986 249908
579054 805668
931328 301830
589080 347412
468415 41946
992711 620743
630606 147599
560588 132770
545974 345098
98021 872834
31104 559037
259464 71918
121738 67062
123971 614725
88311 812473
893737 69551
958302 843627
692694 391805
572436 851571
793397 625962
653469 466738
715423 187160
119062 133755
876608 736279
862938 756239
672419 66533
747118 899082
545369 330004
253614 557910
976493 66731
125904 694065
658627 268139
212168 847641
461 623727
795578 828920
879932 224890
25592 430916
986694 381573
657842 43744
872708 253258
634895 556209
842587 20633
295905 945256
960044 608907
232187 851135
390173 782604
861150 956824
797580 95398
460327 435671
621401 769381
57406 380327
238913 468363
792590 16167
860363 637695
121777 35613
84695 32280
728181 22934
879113 546863
357585 983296
583250 762785
721302 942930
170048 918885
827836 679250
745274 333103
753581 918791
199811 445890
427137 915792
683988 766617
269666 806801
796769 964055
31349 315248
278648 649727
198646 752976
948407 496571
971519 95371
169099 385127
394647 708386
590389 912801
420609 748052
481621 70960
773881 754060
715899 178938
617380 669784
226417 478503
502717 794051
132637 254082
924701 589307
108692 337113
962895 598320
7330 715743
618777 17065
205366 511134
366025 785921
587986 974179
130859 189218
967927 908607
458936 48112
662820 662093
53359 852936
662211 239326
31721 694564
625585 28651
666471 937160
328205 250239
206413 249787
308722 116162
985000 280521
189857 464097
9746 856427
41741 408693
944395 319222
865805 447751
182101 827247
318295 643589
314405 154942
943587 730267
892225 583740
56758 110178
679384 90592
797895 185390
159247 892764
226139 448313
208547 224327
282611 630702
793262 915470
591813 407367
61558 931281
153039 125927
260844 374082
482221 869577
41773 840872
700039 494114
493995 573391
332298 385270
793222 198480
173228 656099
13398 111668
691207 894141
657350 849316
184555 96037
357285 322655
519044 19346
813679 958526
500129 666599
180651 105614
643750 688552
968075 556717
