954245 345030 525
708644 955929 525
632199 300556 509
100014 801977 509
142160 827300 509
779772 312680 509
565163 574025 377
967853 527285 525
91938 986397 525
645354 364724 509
298179 466550 449
2904 754456 509
478681 791388 509
719600 231901 509
914193 541081 525
604019 419932 470
685708 405791 509
409588 90033 443
16829 557125 470
925234 471369 525
363803 714908 509
90149 938334 525
875677 171955 525
471283 802261 509
347112 30704 443
549024 577535 421
230405 111205 386
686383 751416 504
948657 914343 507
923839 426108 525
830619 259395 509
684622 131660 509
399812 882356 525
947893 786250 525
59576 192957 383
849535 713530 525
150665 541327 470
673823 352821 509
486393 635191 509
511851 294850 449
245080 315299 407
727629 259375 509
862686 266583 525
121473 109568 349
481449 182111 449
519603 430065 470
718528 138347 509
185568 645450 509
522889 349536 470
810913 610524 509
616389 703719 509
713704 727449 411
324051 349985 441
940615 123776 525
943815 154588 525
707429 2781 509
551364 604354 434
286552 122193 443
489379 81520 449
722152 89108 509
375435 318557 441
368192 316466 441
547871 878090 525
167268 138812 383
154642 546864 470
114463 922354 525
776420 219496 509
52302 602646 470
17509 851048 525
368619 848595 525
964732 607664 525
736352 292773 509
542719 125135 470
33723 614456 470
264159 75894 443
585067 745387 509
985672 954454 458
972823 790963 525
102318 725041 509
124213 130148 344
308481 275060 389
636011 912664 525
238958 92212 443
48269 889285 525
433593 854691 525
165265 144145 383
11590 580881 470
40775 575231 470
598411 959265 525
268110 308291 407
20625 831314 509
955112 170581 525
423168 689770 509
626092 554680 447
635493 503649 509
270763 348955 441
452508 845063 525
3981 54306 340
325682 204546 443
863491 839838 419
378077 237323 441
99610 688265 509
612103 589139 403
784986 249908 509
579054 805668 509
931328 301830 525
589080 347412 470
468415 41946 449
992711 620743 525
630606 147599 509
560588 132770 470
545974 345098 470
98021 872834 525
31104 559037 470
259464 71918 443
121738 67062 354
123971 614725 470
88311 812473 509
893737 69551 525
958302 843627 507
692694 391805 509
572436 851571 525
793397 625962 509
653469 466738 509
715423 187160 509
119062 133755 344
876608 736279 525
862938 756239 525
672419 66533 509
747118 899082 525
545369 330004 470
253614 557910 470
976493 66731 525
125904 694065 509
658627 268139 509
212168 847641 525
461 623727 470
795578 828920 468
879932 224890 525
25592 430916 449
986694 381573 525
657842 43744 509
872708 253258 525
634895 556209 509
842587 20633 525
295905 945256 525
960044 608907 525
232187 851135 525
390173 782604 509
861150 956824 507
797580 95398 509
460327 435671 400
621401 769381 509
57406 380327 443
238913 468363 449
792590 16167 509
860363 637695 525
121777 35613 354
84695 32280 351
728181 22934 509
879113 546863 525
357585 983296 525
583250 762785 509
721302 942930 525
170048 918885 525
827836 679250 504
745274 333103 509
753581 918791 525
199811 445890 449
427137 915792 525
683988 766617 504
269666 806801 509
796769 964055 525
31349 315248 443
278648 649727 509
198646 752976 509
948407 496571 525
971519 95371 525
169099 385127 443
394647 708386 509
590389 912801 525
420609 748052 509
481621 70960 449
773881 754060 468
715899 178938 509
617380 669784 509
226417 478503 449
502717 794051 509
132637 254082 443
924701 589307 525
108692 337113 443
962895 598320 525
7330 715743 509
618777 17065 470
205366 511134 449
366025 785921 509
587986 974179 525
130859 189218 383
967927 908607 507
458936 48112 449
662820 662093 261
53359 852936 525
662211 239326 509
31721 694564 509
625585 28651 470
666471 937160 525
328205 250239 407
206413 249787 443
308722 116162 443
985000 280521 525
189857 464097 449
9746 856427 525
41741 408693 443
944395 319222 525
865805 447751 525
182101 827247 509
318295 643589 509
314405 154942 443
943587 730267 525
892225 583740 525
56758 110178 354
679384 90592 509
797895 185390 509
159247 892764 525
226139 448313 449
208547 224327 386
282611 630702 509
793262 915470 525
591813 407367 470
61558 931281 525
153039 125927 375
260844 374082 441
482221 869577 525
41773 840872 525
700039 494114 509
493995 573391 470
332298 385270 441
793222 198480 509
173228 656099 509
13398 111668 354
691207 894141 525
657350 849316 525
184555 96037 383
357285 322655 441
519044 19346 470
813679 958526 525
500129 666599 509
180651 105614 383
643750 688552 442
968075 556717 525
