347395 140076
537959 947067
765749 343260
272047 700471
866226 748381
355716 147797
223111 880685
444359 58479
214826 920549
709909 410649
599422 424305
16578 226243
754274 999089
851570 154570
767803 269541
375609 146686
695700 359596
124247 627550
670800 73895
622335 711599
811222 372494
612548 126599
216491 705554
790999 387868
961821 803147
249833 249705
238198 383821
619644 893053
111742 589232
230747 93524
476118 370822
42879 756763
407473 122492
567504 593055
556882 155619
948031 572249
153675 463646
425452 843777
617207 255026
518045 131011
48063 381939
318942 456991
314976 859834
471100 187580
770678 391361
109852 57379
778937 463517
732521 319105
462038 790474
256498 775483
969824 984273
77302 319562
661776 774303
838918 85655
984226 603922
137411 654419
423372 416611
648213 465482
283498 422222
891152 102962
554075 641089
361076 571840
977176 758748
668329 370149
187386 262876
754485 451783
51922 711108
701025 730926
671442 606929
698872 13083
690432 385320
425611 339805
798320 66487
441482 817816
472021 675847
193280 766041
338632 129523
651114 310841
504330 394285
98850 943322
645790 284442
354517 351784
310715 274400
899711 685757
152211 22975
928046 581018
488454 303705
932797 781488
5665 194221
952819 858579
992458 957966
591637 271427
204831 257010
442802 231965
925740 494836
784728 108020
691486 643285
178867 427606
3591 485777
820377 370798
424936 95674
453848 137578
961344 898680
946273 614889
229544 657417
632856 699148
777512 248222
245888 153017
993601 178882
533886 373039
828767 485937
303589 858058
537964 342478
49386 611223
435767 319097
345399 72847
821143 84491
108832 19671
188925 190446
385734 875669
91810 704749
448833 280297
442534 867802
437365 981198
958924 618376
565174 885698
28208 97829
324269 719048
260060 859024
85847 961035
385032 767098
450981 435801
443856 705696
631455 723182
746221 76548
800486 933674
230824 583559
394635 723150
771378 775664
555491 73566
620739 715725
649814 651827
45463 439428
178251 986607
557061 443456
514567 48560
621016 940844
985647 499689
721411 721410
997251 620394
780391 503351
468910 153428
916400 170081
995908 611970
496969 625020
426850 410966
389705 309859
948299 318654
302196 632989
86514 188708
94416 896507
501455 228320
451886 392467
449736 228019
39468 153431
883862 686104
298812 964603
372071 577596
407717 676555
972096 109151
664119 67493
167171 974648
552489 290741
69507 395996
919498 611739
341654 430166
919280 956417
350892 480598
322227 787621
259233 588304
258624 689062
17623 270729
787386 69879
995960 2013
656286 92087
494449 725224
135688 642331
620377 697560
815057 412705
707364 668798
750523 455375
453016 226525
629294 808205
586572 12589
426570 384088
158410 517949
530483 701868
768478 723001
504155 954906
889240 180708
840016 551636
188687 332481
584903 824025
863710 656515
590995 755535
837375 55727
919538 576043
479684 798737
698647 949421
315920 620254
167940 760526
229097 553184
871503 568580
589971 985717
912380 913333
52344 871792
467584 190303
295269 441201
102662 592937
624309 431871
5447 843753
695804 684498
379910 467180
817012 530754
56236 934538
333445 536885
461686 15950
477270 90849
29071 385949
100721 619038
506600 410011
736502 59334
219477 624736
580601 18588
536164 836651
40068 953388
440879 649894
948952 808905
865186 942435
482698 713776
4076 202934
13226 484886
849658 268582
257190 268383
