909388 72962
747798 650695
536503 941348
57194 389109
977003 528622
390995 998505
559261 518357
483900 535386
590276 924536
468477 304788
11469 856853
208170 964360
741689 847334
157618 970319
49971 280848
70345 259852
96475 470467
234396 815275
243852 178040
544127 605883
473234 283867
386926 63133
481035 954853
964449 840276
975749 393025
972936 236003
812919 905921
340723 817848
692755 292201
658019 564233
521621 839360
230448 770271
459453 57439
988114 482912
28185 778468
995428 878507
234616 578858
786062 915907
720979 109277
560919 167745
623831 766727
440184 47570
334009 712467
502513 889030
823429 516035
360179 316667
295078 296987
436960 718327
992161 611545
603766 621991
203279 367928
49098 789533
743456 914934
236382 70350
510015 819697
71501 938956
413571 413237
164071 332353
794746 111657
591021 201874
8042 25173
248110 95394
191127 49983
262586 127637
859763 273891
898723 936071
802670 334104
924597 902009
395866 20671
828761 560787
136385 627525
767820 235409
530062 397678
797799 697151
7331 803502
437596 587951
886940 130447
672086 16882
152263 972048
712940 464045
906758 795426
71212 669494
969204 100619
356830 730451
535484 308218
851368 288307
998792 125849
659142 944713
801760 924278
860403 463667
287741 249636
6059 165617
225528 608723
423846 863921
322925 30784
84448 973382
496000 167475
504428 246674
731313 878198
426300 26273
718970 224233
339731 54819
330666 75535
770209 786129
759569 214056
368586 762368
816637 998507
998149 811592
137909 907358
596520 116420
578212 898866
681857 868259
316243 860302
423575 223990
647762 291692
268147 625672
744721 553604
572781 324210
917864 276496
588859 177024
475658 564386
309097 535852
314791 114079
589669 117963
482778 887420
564915 18597
171983 813870
956174 872051
450711 549624
733898 1453
244029 441171
325703 807092
421081 742655
688905 516102
138532 734419
822848 882892
482791 837846
924819 457391
540517 799629
359985 37850
423500 999340
814660 103808
687035 302337
728990 920825
806702 767518
101925 33137
931565 541106
297068 904427
223671 586448
275539 2105
365809 923106
802509 298739
897758 770938
125450 505926
897373 713977
628561 79064
936643 789497
89785 441537
700898 238374
416402 132130
582787 682005
301985 702649
677924 49530
293864 113906
372690 449328
655823 398063
757640 295157
682280 795472
678355 590530
886738 117819
824973 580204
63880 928775
611797 863950
468766 179328
168755 441699
995238 401364
911956 66863
49653 905443
104346 419570
838120 546027
553148 389997
208297 345702
206303 490645
909929 817543
833614 139826
173644 767880
527080 285108
415563 382244
490232 860787
909275 766845
710659 110351
206763 467510
79035 521903
422458 919503
582425 270768
884111 108484
997700 830691
875104 190027
103491 589890
868970 399538
922100 125870
140411 972678
733394 509688
815145 6707
736991 855021
966779 569947
484136 356598
416265 635968
499842 477127
838019 335978
969102 474269
885418 417398
601068 769494
1932 353936
558424 543319
110069 653737
100304 103211
978503 331414
730207 275749
606859 506837
474675 694357
705001 100112
681063 623699
793240 434778
465865 420880
178343 102644
694832 188081
438260 278189
74786 923979
985965 256594
949928 829424
410035 152867
461697 803595
578259 795935
174391 516723
812226 54837
858116 334181
180582 406426
540582 101109
437765 237158
955302 860576
46768 402983
251754 248830
630919 630587
802962 714474
817073 975230
450012 62343
928003 278017
681406 250530
547673 32422
910640 779591
192555 350528
111996 704504
320086 125369
854094 593263
61949 233889
463485 840850
511470 803708
125338 181858
131004 297982
635155 414744
121169 34499
151803 475103
391636 630771
732922 905715
265408 731212
503134 7528
833309 679873
244594 763343
590909 750352
674846 520515
511416 463394
177396 660733
636324 755094
